<svg width="515" height="48" viewBox="0 0 515 48" fill="none" xmlns="http://www.w3.org/2000/svg">
<g clip-path="url(#clip0)">
<path d="M31.8433 32.9794L32.8425 31.9987L31.8959 31.0343L30.8986 31.9461L31.8433 32.9794ZM35.7773 36.9876L36.8317 37.9087L37.6846 36.9323L36.7765 36.007L35.7773 36.9876ZM8.09072 38.1753L7.10762 39.172L7.1145 39.1788L7.12146 39.1855L8.09072 38.1753ZM8.23918 11.2309L9.20874 12.2409L9.21566 12.2342L8.23918 11.2309ZM36.2969 12.0474L37.3312 12.991L38.194 12.0452L37.3289 11.1014L36.2969 12.0474ZM32.4371 16.2783L31.4616 17.2825L32.4978 18.2891L33.4714 17.2219L32.4371 16.2783ZM12.767 15.3876L11.8075 14.3681L11.7975 14.3777L12.767 15.3876ZM12.767 33.6474L13.7667 32.6673L12.767 33.6474ZM26.9443 36.3938L26.3681 35.1179L26.3602 35.1215L26.3523 35.1252L26.9443 36.3938ZM30.8441 33.96L34.7782 37.9683L36.7765 36.007L32.8425 31.9987L30.8441 33.96ZM34.723 36.0666C31.2184 40.0783 26.9465 42.0454 21.8227 42.0454L21.8227 44.8454C27.7834 44.8454 32.8146 42.5072 36.8317 37.9087L34.723 36.0666ZM21.8227 42.0454C16.6585 42.0454 12.4385 40.4066 9.05998 37.165L7.12146 39.1855C11.0666 42.9707 16.0013 44.8454 21.8227 44.8454L21.8227 42.0454ZM9.07382 37.1785C5.74633 33.8966 4.07216 29.7856 4.07216 24.7402H1.27216C1.27216 30.4824 3.21038 35.3281 7.10762 39.172L9.07382 37.1785ZM4.07216 24.7402C4.07216 19.6534 5.78973 15.5231 9.20872 12.2409L7.26963 10.221C3.26594 14.0645 1.27216 18.9404 1.27216 24.7402H4.07216ZM9.21566 12.2342C12.6411 8.90006 16.9559 7.21237 22.268 7.21237V4.41237C16.2978 4.41237 11.2599 6.33705 7.26269 10.2277L9.21566 12.2342ZM22.268 7.21237C27.4102 7.21237 31.7145 9.12028 35.2649 12.9934L37.3289 11.1014C33.2587 6.66116 28.2105 4.41237 22.268 4.41237V7.21237ZM35.2626 11.1039L31.4028 15.3348L33.4714 17.2219L37.3312 12.991L35.2626 11.1039ZM33.4126 15.2742C31.607 13.5201 29.8303 12.2328 28.0796 11.4986L26.9967 14.0808C28.314 14.6332 29.8033 15.6717 31.4616 17.2825L33.4126 15.2742ZM28.0796 11.4986C26.3371 10.7679 24.339 10.4247 22.1196 10.4247V13.2247C24.0568 13.2247 25.6711 13.5249 26.9967 14.0808L28.0796 11.4986ZM22.1196 10.4247C18.0793 10.4247 14.6104 11.7301 11.8075 14.3681L13.7265 16.4071C15.971 14.2946 18.7372 13.2247 22.1196 13.2247V10.4247ZM11.7975 14.3777C9.02816 17.0362 7.65567 20.429 7.65567 24.4433H10.4557C10.4557 21.1339 11.5574 18.4896 13.7366 16.3976L11.7975 14.3777ZM7.65567 24.4433C7.65567 28.4131 9.03024 31.8357 11.7673 34.6275L13.7667 32.6673C11.5553 30.4117 10.4557 27.6982 10.4557 24.4433H7.65567ZM11.7673 34.6275C14.4945 37.4092 17.7949 38.833 21.6 38.833V36.033C18.5762 36.033 15.988 34.933 13.7667 32.6673L11.7673 34.6275ZM21.6 38.833C23.8297 38.833 25.8236 38.4617 27.5364 37.6625L26.3523 35.1252C25.0959 35.7115 23.527 36.033 21.6 36.033V38.833ZM27.5206 37.6697C29.231 36.8973 30.9865 35.6597 32.788 34.0126L30.8986 31.9461C29.2362 33.466 27.7257 34.5048 26.3681 35.1179L27.5206 37.6697ZM64.4521 29.7876L64.0556 28.4449L62.1638 29.0035L63.3154 30.605L64.4521 29.7876ZM73.9531 43V44.4H76.6842L75.0897 42.1826L73.9531 43ZM66.1593 43L65.0173 43.8098L65.4358 44.4H66.1593V43ZM57.4747 30.7526L58.6168 29.9428L58.1983 29.3526H57.4747V30.7526ZM49.4582 30.7526V29.3526H48.0582V30.7526H49.4582ZM49.4582 43V44.4H50.8582V43H49.4582ZM43.2974 43H41.8974V44.4H43.2974V43ZM43.2974 6.70309V5.30309H41.8974V6.70309H43.2974ZM68.6088 9.52371L67.7398 10.6214L67.7523 10.6313L67.7651 10.641L68.6088 9.52371ZM64.0809 23.701L63.2013 22.6119L63.2013 22.6119L64.0809 23.701ZM64.0809 13.6062L63.284 14.7573L63.2993 14.7678L63.3148 14.7779L64.0809 13.6062ZM49.4582 12.2701L49.4582 10.8701H48.0582L48.0582 12.2701H49.4582ZM49.4582 25.2598H48.0582V26.6598H49.4582V25.2598ZM63.3154 30.605L72.8165 43.8174L75.0897 42.1826L65.5887 28.9703L63.3154 30.605ZM73.9531 41.6H66.1593V44.4H73.9531V41.6ZM67.3013 42.1902L58.6168 29.9428L56.3327 31.5624L65.0173 43.8098L67.3013 42.1902ZM57.4747 29.3526H49.4582V32.1526H57.4747V29.3526ZM48.0582 30.7526V43H50.8582V30.7526H48.0582ZM49.4582 41.6H43.2974V44.4H49.4582V41.6ZM44.6974 43L44.6974 6.70309H41.8974L41.8974 43H44.6974ZM43.2974 8.10309H56.8067V5.30309H43.2974V8.10309ZM56.8067 8.10309C62.2103 8.10309 65.7445 9.04182 67.7398 10.6214L69.4777 8.42605C66.7225 6.24478 62.3887 5.30309 56.8067 5.30309V8.10309ZM67.7651 10.641C69.721 12.1179 70.8459 14.6141 70.8459 18.5052H73.6459C73.6459 14.0828 72.346 10.5914 69.4524 8.40645L67.7651 10.641ZM70.8459 18.5052C70.8459 21.3019 70.2396 23.437 69.1455 25.0208C68.0607 26.5912 66.4059 27.751 64.0556 28.4449L64.8485 31.1303C67.6941 30.2902 69.9362 28.8026 71.4493 26.6122C72.9532 24.4352 73.6459 21.696 73.6459 18.5052H70.8459ZM57.0294 26.6598C60.481 26.6598 63.2698 26.1558 64.9606 24.7901L63.2013 22.6119C62.3189 23.3246 60.4067 23.8598 57.0294 23.8598V26.6598ZM64.9606 24.7901C66.7133 23.3745 67.4108 21.1132 67.4108 18.4309H64.6108C64.6108 20.6971 64.0217 21.9492 63.2013 22.6119L64.9606 24.7901ZM67.4108 18.4309C67.4108 15.8535 66.7118 13.6537 64.8471 12.4344L63.3148 14.7779C64.0233 15.2412 64.6108 16.2578 64.6108 18.4309H67.4108ZM64.8778 12.4551C63.2101 11.3005 60.5214 10.8701 57.1778 10.8701L57.1778 13.6701C60.4652 13.6701 62.3786 14.1304 63.284 14.7573L64.8778 12.4551ZM57.1778 10.8701H49.4582L49.4582 13.6701H57.1778L57.1778 10.8701ZM48.0582 12.2701V25.2598H50.8582V12.2701H48.0582ZM49.4582 26.6598H57.0294V23.8598H49.4582V26.6598ZM95.3771 43V44.4H96.7771V43H95.3771ZM89.142 43H87.742V44.4H89.142V43ZM89.142 28.6742H90.542V28.2783L90.3346 27.9409L89.142 28.6742ZM75.6328 6.70309V5.30309H73.1285L74.4402 7.43638L75.6328 6.70309ZM82.3874 6.70309L83.5884 5.98359L83.1807 5.30309H82.3874V6.70309ZM92.2596 23.1814L91.0586 23.9009L92.2551 25.8981L93.4581 23.9049L92.2596 23.1814ZM102.206 6.70309V5.30309H101.416L101.007 5.97962L102.206 6.70309ZM108.886 6.70309L110.079 7.43638L111.391 5.30309H108.886V6.70309ZM95.3771 28.6742L94.1845 27.9409L93.9771 28.2783V28.6742H95.3771ZM95.3771 41.6H89.142V44.4H95.3771V41.6ZM90.542 43V28.6742H87.742V43H90.542ZM90.3346 27.9409L76.8254 5.9698L74.4402 7.43638L87.9494 29.4075L90.3346 27.9409ZM75.6328 8.10309H82.3874V5.30309H75.6328V8.10309ZM81.1864 7.42259L91.0586 23.9009L93.4605 22.4619L83.5884 5.98359L81.1864 7.42259ZM93.4581 23.9049L103.405 7.42656L101.007 5.97962L91.061 22.458L93.4581 23.9049ZM102.206 8.10309H108.886V5.30309H102.206V8.10309ZM107.694 5.9698L94.1845 27.9409L96.5697 29.4075L110.079 7.43638L107.694 5.9698ZM93.9771 28.6742V43H96.7771V28.6742H93.9771ZM137.96 9.89484L137.058 10.9652L137.069 10.9747L137.081 10.984L137.96 9.89484ZM137.96 29.268L138.827 30.3674L138.834 30.3623L138.84 30.3572L137.96 29.268ZM119.7 32.3113V30.9113H118.3V32.3113H119.7ZM119.7 43V44.4H121.1V43H119.7ZM113.54 43H112.14V44.4H113.54V43ZM113.54 6.70309V5.30309H112.14V6.70309H113.54ZM133.581 24.9629L132.63 23.9356L132.62 23.9446L132.61 23.9537L133.581 24.9629ZM133.284 13.8289L134.069 12.6698L134.069 12.6698L133.284 13.8289ZM119.7 12.2701V10.8701H118.3V12.2701H119.7ZM119.7 26.8186H118.3V28.2186H119.7V26.8186ZM126.01 8.10309C131.322 8.10309 134.905 9.15047 137.058 10.9652L138.863 8.82451C135.968 6.38355 131.584 5.30309 126.01 5.30309V8.10309ZM137.081 10.984C139.223 12.7147 140.42 15.4873 140.42 19.6186H143.22C143.22 14.9416 141.843 11.2317 138.84 8.80573L137.081 10.984ZM140.42 19.6186C140.42 23.6941 139.227 26.4453 137.081 28.1789L138.84 30.3572C141.84 27.9341 143.22 24.2522 143.22 19.6186H140.42ZM137.093 28.1687C134.88 29.9135 131.297 30.9113 126.084 30.9113V33.7113C131.559 33.7113 135.894 32.6803 138.827 30.3674L137.093 28.1687ZM126.084 30.9113H119.7V33.7113H126.084V30.9113ZM118.3 32.3113V43H121.1V32.3113H118.3ZM119.7 41.6H113.54V44.4H119.7V41.6ZM114.94 43V6.70309H112.14V43H114.94ZM113.54 8.10309H126.01V5.30309H113.54V8.10309ZM126.752 28.2186C130.109 28.2186 132.859 27.5996 134.551 25.9721L132.61 23.9537C131.73 24.8004 129.927 25.4186 126.752 25.4186V28.2186ZM134.532 25.9902C136.266 24.3847 136.985 21.9772 136.985 19.099H134.185C134.185 21.5651 133.568 23.0669 132.63 23.9356L134.532 25.9902ZM136.985 19.099C136.985 16.3323 136.111 14.053 134.069 12.6698L132.499 14.988C133.525 15.6831 134.185 16.9172 134.185 19.099H136.985ZM134.069 12.6698C132.179 11.3891 129.353 10.8701 125.861 10.8701V13.6701C129.199 13.6701 131.321 14.1903 132.499 14.988L134.069 12.6698ZM125.861 10.8701H119.7V13.6701H125.861V10.8701ZM118.3 12.2701V26.8186H121.1V12.2701H118.3ZM119.7 28.2186H126.752V25.4186H119.7V28.2186ZM162.85 12.2701V10.8701H161.45V12.2701H162.85ZM162.85 43V44.4H164.25V43H162.85ZM156.689 43H155.289V44.4H156.689V43ZM156.689 12.2701H158.089V10.8701H156.689V12.2701ZM145.703 12.2701H144.303V13.6701H145.703V12.2701ZM145.703 6.70309V5.30309H144.303V6.70309H145.703ZM173.835 6.70309H175.235V5.30309H173.835V6.70309ZM173.835 12.2701V13.6701H175.235V12.2701H173.835ZM161.45 12.2701V43H164.25V12.2701H161.45ZM162.85 41.6H156.689V44.4H162.85V41.6ZM158.089 43V12.2701H155.289V43H158.089ZM156.689 10.8701H145.703V13.6701H156.689V10.8701ZM147.103 12.2701V6.70309H144.303V12.2701H147.103ZM145.703 8.10309H173.835V5.30309H145.703V8.10309ZM172.435 6.70309V12.2701H175.235V6.70309H172.435ZM173.835 10.8701H162.85V13.6701H173.835V10.8701ZM188.193 15.2392L187.184 14.2688L187.184 14.2688L188.193 15.2392ZM188.193 33.9443L187.184 34.9147L187.193 34.9244L188.193 33.9443ZM206.453 33.9443L207.452 34.9245L207.462 34.9147L206.453 33.9443ZM206.453 15.2392L207.462 14.2688L207.462 14.2688L206.453 15.2392ZM183.665 38.0268L182.682 39.0235L182.689 39.0302L183.665 38.0268ZM183.665 11.2309L184.641 12.2344L184.648 12.2276L183.665 11.2309ZM210.98 11.2309L209.997 12.2276L210.004 12.2343L210.98 11.2309ZM210.906 37.9526L209.937 36.9426L209.93 36.9493L210.906 37.9526ZM197.323 9.97938C193.335 9.97938 189.925 11.4174 187.184 14.2688L189.202 16.2095C191.409 13.9145 194.086 12.7794 197.323 12.7794V9.97938ZM187.184 14.2688C184.452 17.1102 183.081 20.5785 183.081 24.5918H185.881C185.881 21.2813 186.986 18.5145 189.202 16.2095L187.184 14.2688ZM183.081 24.5918C183.081 28.605 184.452 32.0733 187.184 34.9147L189.202 32.974C186.986 30.669 185.881 27.9022 185.881 24.5918H183.081ZM187.193 34.9244C189.937 37.7233 193.344 39.1299 197.323 39.1299V36.3299C194.077 36.3299 191.397 35.2128 189.192 32.9642L187.193 34.9244ZM197.323 39.1299C201.302 39.1299 204.708 37.7233 207.452 34.9244L205.453 32.9642C203.248 35.2128 200.568 36.3299 197.323 36.3299V39.1299ZM207.462 34.9147C210.194 32.0733 211.564 28.605 211.564 24.5918H208.764C208.764 27.9022 207.66 30.669 205.443 32.974L207.462 34.9147ZM211.564 24.5918C211.564 20.5785 210.194 17.1102 207.462 14.2688L205.443 16.2095C207.66 18.5145 208.764 21.2813 208.764 24.5918H211.564ZM207.462 14.2688C204.72 11.4174 201.311 9.97938 197.323 9.97938V12.7794C200.559 12.7794 203.237 13.9145 205.443 16.2095L207.462 14.2688ZM197.323 41.9711C192.218 41.9711 188.023 40.3142 184.641 37.0234L182.689 39.0302C186.63 42.8652 191.541 44.7711 197.323 44.7711V41.9711ZM184.648 37.0301C181.264 33.6921 179.572 29.5778 179.572 24.5918H176.772C176.772 30.2944 178.742 35.1368 182.682 39.0235L184.648 37.0301ZM179.572 24.5918C179.572 19.6059 181.264 15.5204 184.641 12.2343L182.689 10.2275C178.742 14.0672 176.772 18.8889 176.772 24.5918H179.572ZM184.648 12.2276C188.032 8.88987 192.224 7.21237 197.323 7.21237V4.41237C191.535 4.41237 186.622 6.34724 182.682 10.2343L184.648 12.2276ZM197.323 7.21237C202.422 7.21237 206.614 8.88987 209.997 12.2276L211.964 10.2343C208.023 6.34724 203.11 4.41237 197.323 4.41237V7.21237ZM210.004 12.2343C213.381 15.5204 215.073 19.6059 215.073 24.5918H217.873C217.873 18.8889 215.903 14.0672 211.957 10.2275L210.004 12.2343ZM215.073 24.5918C215.073 29.5715 213.361 33.655 209.937 36.9426L211.876 38.9625C215.874 35.1243 217.873 30.3007 217.873 24.5918H215.073ZM209.93 36.9493C206.489 40.2984 202.315 41.9711 197.323 41.9711V44.7711C203.019 44.7711 207.901 42.8315 211.883 38.9558L209.93 36.9493Z" fill="#1074BC"/>
<path d="M405.169 34.7608V33.3608H404.257L403.888 34.1954L405.169 34.7608ZM401.532 43V44.4H402.444L402.813 43.5654L401.532 43ZM395 43L393.719 42.4343L392.851 44.4H395V43ZM411.033 6.70309V5.30309H410.121L409.752 6.13741L411.033 6.70309ZM417.565 6.70309L418.847 6.13961L418.479 5.30309H417.565V6.70309ZM433.524 43V44.4H435.669L434.805 42.4365L433.524 43ZM426.992 43L425.711 43.5654L426.079 44.4H426.992V43ZM423.355 34.7608L424.635 34.1954L424.267 33.3608H423.355V34.7608ZM420.905 29.0454V30.4454H423.056L422.185 28.4785L420.905 29.0454ZM414.299 14.1258L415.579 13.559L414.299 10.6679L413.019 13.559L414.299 14.1258ZM407.693 29.0454L406.413 28.4785L405.542 30.4454H407.693V29.0454ZM403.888 34.1954L400.251 42.4346L402.813 43.5654L406.45 35.3262L403.888 34.1954ZM401.532 41.6H395V44.4H401.532V41.6ZM396.281 43.5657L412.314 7.26877L409.752 6.13741L393.719 42.4343L396.281 43.5657ZM411.033 8.10309H417.565V5.30309H411.033V8.10309ZM416.283 7.26657L432.242 43.5635L434.805 42.4365L418.847 6.13961L416.283 7.26657ZM433.524 41.6H426.992V44.4H433.524V41.6ZM428.273 42.4346L424.635 34.1954L422.074 35.3262L425.711 43.5654L428.273 42.4346ZM423.355 33.3608H405.169V36.1608H423.355V33.3608ZM422.185 28.4785L415.579 13.559L413.019 14.6926L419.625 29.6122L422.185 28.4785ZM413.019 13.559L406.413 28.4785L408.973 29.6122L415.579 14.6926L413.019 13.559ZM407.693 30.4454H420.905V27.6454H407.693V30.4454ZM452.311 12.2701V10.8701H450.911V12.2701H452.311ZM452.311 43V44.4H453.711V43H452.311ZM446.15 43H444.75V44.4H446.15V43ZM446.15 12.2701H447.55V10.8701H446.15V12.2701ZM435.164 12.2701H433.764V13.6701H435.164V12.2701ZM435.164 6.70309V5.30309H433.764V6.70309H435.164ZM463.296 6.70309H464.696V5.30309H463.296V6.70309ZM463.296 12.2701V13.6701H464.696V12.2701H463.296ZM450.911 12.2701V43H453.711V12.2701H450.911ZM452.311 41.6H446.15V44.4H452.311V41.6ZM447.55 43V12.2701H444.75V43H447.55ZM446.15 10.8701H435.164V13.6701H446.15V10.8701ZM436.564 12.2701V6.70309H433.764V12.2701H436.564ZM435.164 8.10309L463.296 8.10309V5.30309L435.164 5.30309V8.10309ZM461.896 6.70309V12.2701H464.696V6.70309H461.896ZM463.296 10.8701L452.311 10.8701V13.6701H463.296V10.8701ZM476.169 43V44.4H477.569V43H476.169ZM470.008 43H468.608V44.4H470.008V43ZM470.008 6.70309V5.30309H468.608V6.70309H470.008ZM479.584 6.70309L480.846 6.09847L480.465 5.30309H479.584V6.70309ZM490.495 29.4907L489.232 30.0953L490.491 32.7235L491.756 30.0987L490.495 29.4907ZM501.481 6.70309V5.30309H500.601L500.219 6.09513L501.481 6.70309ZM510.982 6.70309H512.382V5.30309H510.982V6.70309ZM510.982 43V44.4H512.382V43H510.982ZM504.895 43H503.495V44.4H504.895V43ZM504.895 14.6454H506.295L503.645 14.0148L504.895 14.6454ZM492.202 39.8082V41.2082H493.064L493.452 40.4388L492.202 39.8082ZM488.788 39.8082L487.536 40.4358L487.924 41.2082H488.788V39.8082ZM476.169 14.6454L477.421 14.0178L474.769 14.6454H476.169ZM476.169 41.6H470.008V44.4H476.169V41.6ZM471.408 43V6.70309H468.608V43H471.408ZM470.008 8.10309H479.584V5.30309H470.008V8.10309ZM478.321 7.30771L489.232 30.0953L491.758 28.8861L480.846 6.09847L478.321 7.30771ZM491.756 30.0987L502.742 7.31105L500.219 6.09513L489.234 28.8828L491.756 30.0987ZM501.481 8.10309H510.982V5.30309H501.481V8.10309ZM509.582 6.70309V43H512.382V6.70309H509.582ZM510.982 41.6H504.895V44.4H510.982V41.6ZM506.295 43V14.6454H503.495V43H506.295ZM503.645 14.0148L490.952 39.1777L493.452 40.4388L506.145 15.2759L503.645 14.0148ZM492.202 38.4082H488.788V41.2082H492.202V38.4082ZM490.039 39.1807L477.421 14.0178L474.918 15.2729L487.536 40.4358L490.039 39.1807ZM474.769 14.6454V43H477.569V14.6454H474.769Z" fill="#1074BC"/>
<path fill-rule="evenodd" clip-rule="evenodd" d="M302.287 43H308.524L292.565 6.70309H286.033L270 43H276.158L289.222 13.8782L302.287 43Z" fill="#1074BC"/>
<path fill-rule="evenodd" clip-rule="evenodd" d="M225.047 43H231.208V14.6454L243.827 39.8083H247.241L259.934 14.6454V43H266.021V6.70309L256.52 6.70309L245.534 29.4907L234.623 6.70309L225.047 6.70309V43Z" fill="#1074BC"/>
<path fill-rule="evenodd" clip-rule="evenodd" d="M327.779 43V12.2701L338.765 12.2701V6.7031L310.633 6.7031V12.2701H321.619V43H327.779ZM351.638 6.7031L345.477 6.7031V43H351.638V6.7031ZM392.379 36.9876L388.445 32.9794C386.713 34.5629 385.08 35.701 383.546 36.3938C382.061 37.0866 380.28 37.433 378.202 37.433C374.787 37.433 371.843 36.1711 369.369 33.6474C366.894 31.1237 365.657 28.0557 365.657 24.4433C365.657 20.7814 366.894 17.7629 369.369 15.3876C371.892 13.0124 375.01 11.8247 378.721 11.8247C380.8 11.8247 382.606 12.1464 384.14 12.7897C385.674 13.433 387.307 14.5959 389.039 16.2784L392.898 12.0474C389.088 7.89073 384.412 5.81238 378.87 5.81238C373.228 5.81238 368.552 7.61856 364.841 11.2309C361.129 14.7938 359.274 19.2969 359.274 24.7402C359.274 30.134 361.08 34.6124 364.692 38.1753C368.354 41.6887 372.931 43.4454 378.424 43.4454C383.967 43.4454 388.618 41.2928 392.379 36.9876Z" fill="#1074BC"/>
</g>
<defs>
<clipPath id="clip0">
<rect width="515" height="48" fill="white"/>
</clipPath>
</defs>
</svg>
